^C:\USERS\ARIEL\DOCUMENTS\VISUAL STUDIO PROYECTOS\GDEXTENSIONVS\GDEXTENSIONVS.CPP
C:\PROGRAM FILES\MICROSOFT VISUAL STUDIO\2022\COMMUNITY\VC\TOOLS\MSVC\14.38.33130\INCLUDE\IOSTREAM
C:\PROGRAM FILES\MICROSOFT VISUAL STUDIO\2022\COMMUNITY\VC\TOOLS\MSVC\14.38.33130\INCLUDE\YVALS_CORE.H
C:\PROGRAM FILES\MICROSOFT VISUAL STUDIO\2022\COMMUNITY\VC\TOOLS\MSVC\14.38.33130\INCLUDE\VCRUNTIME.H
C:\PROGRAM FILES\MICROSOFT VISUAL STUDIO\2022\COMMUNITY\VC\TOOLS\MSVC\14.38.33130\INCLUDE\SAL.H
C:\PROGRAM FILES\MICROSOFT VISUAL STUDIO\2022\COMMUNITY\VC\TOOLS\MSVC\14.38.33130\INCLUDE\CONCURRENCYSAL.H
C:\PROGRAM FILES\MICROSOFT VISUAL STUDIO\2022\COMMUNITY\VC\TOOLS\MSVC\14.38.33130\INCLUDE\VADEFS.H
C:\PROGRAM FILES\MICROSOFT VISUAL STUDIO\2022\COMMUNITY\VC\TOOLS\MSVC\14.38.33130\INCLUDE\XKEYCHECK.H
C:\PROGRAM FILES\MICROSOFT VISUAL STUDIO\2022\COMMUNITY\VC\TOOLS\MSVC\14.38.33130\INCLUDE\ISTREAM
C:\PROGRAM FILES\MICROSOFT VISUAL STUDIO\2022\COMMUNITY\VC\TOOLS\MSVC\14.38.33130\INCLUDE\OSTREAM
C:\PROGRAM FILES\MICROSOFT VISUAL STUDIO\2022\COMMUNITY\VC\TOOLS\MSVC\14.38.33130\INCLUDE\IOS
C:\PROGRAM FILES\MICROSOFT VISUAL STUDIO\2022\COMMUNITY\VC\TOOLS\MSVC\14.38.33130\INCLUDE\XLOCNUM
C:\PROGRAM FILES\MICROSOFT VISUAL STUDIO\2022\COMMUNITY\VC\TOOLS\MSVC\14.38.33130\INCLUDE\CLIMITS
C:\PROGRAM FILES\MICROSOFT VISUAL STUDIO\2022\COMMUNITY\VC\TOOLS\MSVC\14.38.33130\INCLUDE\LIMITS.H
C:\PROGRAM FILES\MICROSOFT VISUAL STUDIO\2022\COMMUNITY\VC\TOOLS\MSVC\14.38.33130\INCLUDE\CMATH
C:\PROGRAM FILES\MICROSOFT VISUAL STUDIO\2022\COMMUNITY\VC\TOOLS\MSVC\14.38.33130\INCLUDE\YVALS.H
C:\PROGRAM FILES (X86)\WINDOWS KITS\10\INCLUDE\10.0.22621.0\UCRT\CRTDBG.H
C:\PROGRAM FILES (X86)\WINDOWS KITS\10\INCLUDE\10.0.22621.0\UCRT\CORECRT.H
C:\PROGRAM FILES\MICROSOFT VISUAL STUDIO\2022\COMMUNITY\VC\TOOLS\MSVC\14.38.33130\INCLUDE\VCRUNTIME_NEW_DEBUG.H
C:\PROGRAM FILES\MICROSOFT VISUAL STUDIO\2022\COMMUNITY\VC\TOOLS\MSVC\14.38.33130\INCLUDE\VCRUNTIME_NEW.H
C:\PROGRAM FILES\MICROSOFT VISUAL STUDIO\2022\COMMUNITY\VC\TOOLS\MSVC\14.38.33130\INCLUDE\CRTDEFS.H
C:\PROGRAM FILES\MICROSOFT VISUAL STUDIO\2022\COMMUNITY\VC\TOOLS\MSVC\14.38.33130\INCLUDE\USE_ANSI.H
C:\PROGRAM FILES\MICROSOFT VISUAL STUDIO\2022\COMMUNITY\VC\TOOLS\MSVC\14.38.33130\INCLUDE\CSTDLIB
C:\PROGRAM FILES (X86)\WINDOWS KITS\10\INCLUDE\10.0.22621.0\UCRT\MATH.H
C:\PROGRAM FILES (X86)\WINDOWS KITS\10\INCLUDE\10.0.22621.0\UCRT\CORECRT_MATH.H
C:\PROGRAM FILES (X86)\WINDOWS KITS\10\INCLUDE\10.0.22621.0\UCRT\STDLIB.H
C:\PROGRAM FILES (X86)\WINDOWS KITS\10\INCLUDE\10.0.22621.0\UCRT\CORECRT_MALLOC.H
C:\PROGRAM FILES (X86)\WINDOWS KITS\10\INCLUDE\10.0.22621.0\UCRT\CORECRT_SEARCH.H
C:\PROGRAM FILES (X86)\WINDOWS KITS\10\INCLUDE\10.0.22621.0\UCRT\STDDEF.H
C:\PROGRAM FILES (X86)\WINDOWS KITS\10\INCLUDE\10.0.22621.0\UCRT\CORECRT_WSTDLIB.H
C:\PROGRAM FILES\MICROSOFT VISUAL STUDIO\2022\COMMUNITY\VC\TOOLS\MSVC\14.38.33130\INCLUDE\XTR1COMMON
C:\PROGRAM FILES\MICROSOFT VISUAL STUDIO\2022\COMMUNITY\VC\TOOLS\MSVC\14.38.33130\INCLUDE\INTRIN0.H
C:\PROGRAM FILES\MICROSOFT VISUAL STUDIO\2022\COMMUNITY\VC\TOOLS\MSVC\14.38.33130\INCLUDE\INTRIN0.INL.H
C:\PROGRAM FILES\MICROSOFT VISUAL STUDIO\2022\COMMUNITY\VC\TOOLS\MSVC\14.38.33130\INCLUDE\CSTDIO
C:\PROGRAM FILES (X86)\WINDOWS KITS\10\INCLUDE\10.0.22621.0\UCRT\STDIO.H
C:\PROGRAM FILES (X86)\WINDOWS KITS\10\INCLUDE\10.0.22621.0\UCRT\CORECRT_WSTDIO.H
C:\PROGRAM FILES (X86)\WINDOWS KITS\10\INCLUDE\10.0.22621.0\UCRT\CORECRT_STDIO_CONFIG.H
C:\PROGRAM FILES\MICROSOFT VISUAL STUDIO\2022\COMMUNITY\VC\TOOLS\MSVC\14.38.33130\INCLUDE\ITERATOR
C:\PROGRAM FILES\MICROSOFT VISUAL STUDIO\2022\COMMUNITY\VC\TOOLS\MSVC\14.38.33130\INCLUDE\IOSFWD
C:\PROGRAM FILES\MICROSOFT VISUAL STUDIO\2022\COMMUNITY\VC\TOOLS\MSVC\14.38.33130\INCLUDE\CSTRING
C:\PROGRAM FILES (X86)\WINDOWS KITS\10\INCLUDE\10.0.22621.0\UCRT\STRING.H
C:\PROGRAM FILES (X86)\WINDOWS KITS\10\INCLUDE\10.0.22621.0\UCRT\CORECRT_MEMORY.H
C:\PROGRAM FILES (X86)\WINDOWS KITS\10\INCLUDE\10.0.22621.0\UCRT\CORECRT_MEMCPY_S.H
C:\PROGRAM FILES (X86)\WINDOWS KITS\10\INCLUDE\10.0.22621.0\UCRT\ERRNO.H
C:\PROGRAM FILES\MICROSOFT VISUAL STUDIO\2022\COMMUNITY\VC\TOOLS\MSVC\14.38.33130\INCLUDE\VCRUNTIME_STRING.H
C:\PROGRAM FILES (X86)\WINDOWS KITS\10\INCLUDE\10.0.22621.0\UCRT\CORECRT_WSTRING.H
C:\PROGRAM FILES\MICROSOFT VISUAL STUDIO\2022\COMMUNITY\VC\TOOLS\MSVC\14.38.33130\INCLUDE\CWCHAR
C:\PROGRAM FILES (X86)\WINDOWS KITS\10\INCLUDE\10.0.22621.0\UCRT\WCHAR.H
C:\PROGRAM FILES (X86)\WINDOWS KITS\10\INCLUDE\10.0.22621.0\UCRT\CORECRT_WCONIO.H
C:\PROGRAM FILES (X86)\WINDOWS KITS\10\INCLUDE\10.0.22621.0\UCRT\CORECRT_WCTYPE.H
C:\PROGRAM FILES (X86)\WINDOWS KITS\10\INCLUDE\10.0.22621.0\UCRT\CORECRT_WDIRECT.H
C:\PROGRAM FILES (X86)\WINDOWS KITS\10\INCLUDE\10.0.22621.0\UCRT\CORECRT_WIO.H
C:\PROGRAM FILES (X86)\WINDOWS KITS\10\INCLUDE\10.0.22621.0\UCRT\CORECRT_SHARE.H
C:\PROGRAM FILES (X86)\WINDOWS KITS\10\INCLUDE\10.0.22621.0\UCRT\CORECRT_WPROCESS.H
C:\PROGRAM FILES (X86)\WINDOWS KITS\10\INCLUDE\10.0.22621.0\UCRT\CORECRT_WTIME.H
C:\PROGRAM FILES (X86)\WINDOWS KITS\10\INCLUDE\10.0.22621.0\UCRT\SYS\STAT.H
C:\PROGRAM FILES (X86)\WINDOWS KITS\10\INCLUDE\10.0.22621.0\UCRT\SYS\TYPES.H
C:\PROGRAM FILES\MICROSOFT VISUAL STUDIO\2022\COMMUNITY\VC\TOOLS\MSVC\14.38.33130\INCLUDE\XUTILITY
C:\PROGRAM FILES\MICROSOFT VISUAL STUDIO\2022\COMMUNITY\VC\TOOLS\MSVC\14.38.33130\INCLUDE\__MSVC_ITER_CORE.HPP
C:\PROGRAM FILES\MICROSOFT VISUAL STUDIO\2022\COMMUNITY\VC\TOOLS\MSVC\14.38.33130\INCLUDE\UTILITY
C:\PROGRAM FILES\MICROSOFT VISUAL STUDIO\2022\COMMUNITY\VC\TOOLS\MSVC\14.38.33130\INCLUDE\INITIALIZER_LIST
C:\PROGRAM FILES\MICROSOFT VISUAL STUDIO\2022\COMMUNITY\VC\TOOLS\MSVC\14.38.33130\INCLUDE\CSTDDEF
C:\PROGRAM FILES\MICROSOFT VISUAL STUDIO\2022\COMMUNITY\VC\TOOLS\MSVC\14.38.33130\INCLUDE\TYPE_TRAITS
C:\PROGRAM FILES\MICROSOFT VISUAL STUDIO\2022\COMMUNITY\VC\TOOLS\MSVC\14.38.33130\INCLUDE\CSTDINT
C:\PROGRAM FILES\MICROSOFT VISUAL STUDIO\2022\COMMUNITY\VC\TOOLS\MSVC\14.38.33130\INCLUDE\STDINT.H
C:\PROGRAM FILES\MICROSOFT VISUAL STUDIO\2022\COMMUNITY\VC\TOOLS\MSVC\14.38.33130\INCLUDE\STREAMBUF
C:\PROGRAM FILES\MICROSOFT VISUAL STUDIO\2022\COMMUNITY\VC\TOOLS\MSVC\14.38.33130\INCLUDE\XIOSBASE
C:\PROGRAM FILES (X86)\WINDOWS KITS\10\INCLUDE\10.0.22621.0\UCRT\SHARE.H
C:\PROGRAM FILES\MICROSOFT VISUAL STUDIO\2022\COMMUNITY\VC\TOOLS\MSVC\14.38.33130\INCLUDE\SYSTEM_ERROR
C:\PROGRAM FILES\MICROSOFT VISUAL STUDIO\2022\COMMUNITY\VC\TOOLS\MSVC\14.38.33130\INCLUDE\__MSVC_SYSTEM_ERROR_ABI.HPP
C:\PROGRAM FILES\MICROSOFT VISUAL STUDIO\2022\COMMUNITY\VC\TOOLS\MSVC\14.38.33130\INCLUDE\CERRNO
C:\PROGRAM FILES\MICROSOFT VISUAL STUDIO\2022\COMMUNITY\VC\TOOLS\MSVC\14.38.33130\INCLUDE\STDEXCEPT
C:\PROGRAM FILES\MICROSOFT VISUAL STUDIO\2022\COMMUNITY\VC\TOOLS\MSVC\14.38.33130\INCLUDE\EXCEPTION
C:\PROGRAM FILES (X86)\WINDOWS KITS\10\INCLUDE\10.0.22621.0\UCRT\MALLOC.H
C:\PROGRAM FILES\MICROSOFT VISUAL STUDIO\2022\COMMUNITY\VC\TOOLS\MSVC\14.38.33130\INCLUDE\VCRUNTIME_EXCEPTION.H
C:\PROGRAM FILES\MICROSOFT VISUAL STUDIO\2022\COMMUNITY\VC\TOOLS\MSVC\14.38.33130\INCLUDE\EH.H
C:\PROGRAM FILES (X86)\WINDOWS KITS\10\INCLUDE\10.0.22621.0\UCRT\CORECRT_TERMINATE.H
C:\PROGRAM FILES\MICROSOFT VISUAL STUDIO\2022\COMMUNITY\VC\TOOLS\MSVC\14.38.33130\INCLUDE\XSTRING
C:\PROGRAM FILES\MICROSOFT VISUAL STUDIO\2022\COMMUNITY\VC\TOOLS\MSVC\14.38.33130\INCLUDE\__MSVC_SANITIZER_ANNOTATE_CONTAINER.HPP
C:\PROGRAM FILES\MICROSOFT VISUAL STUDIO\2022\COMMUNITY\VC\TOOLS\MSVC\14.38.33130\INCLUDE\XMEMORY
C:\PROGRAM FILES\MICROSOFT VISUAL STUDIO\2022\COMMUNITY\VC\TOOLS\MSVC\14.38.33130\INCLUDE\LIMITS
C:\PROGRAM FILES\MICROSOFT VISUAL STUDIO\2022\COMMUNITY\VC\TOOLS\MSVC\14.38.33130\INCLUDE\CFLOAT
C:\PROGRAM FILES (X86)\WINDOWS KITS\10\INCLUDE\10.0.22621.0\UCRT\FLOAT.H
C:\PROGRAM FILES\MICROSOFT VISUAL STUDIO\2022\COMMUNITY\VC\TOOLS\MSVC\14.38.33130\INCLUDE\NEW
C:\PROGRAM FILES\MICROSOFT VISUAL STUDIO\2022\COMMUNITY\VC\TOOLS\MSVC\14.38.33130\INCLUDE\XATOMIC.H
C:\PROGRAM FILES\MICROSOFT VISUAL STUDIO\2022\COMMUNITY\VC\TOOLS\MSVC\14.38.33130\INCLUDE\XPOLYMORPHIC_ALLOCATOR.H
C:\PROGRAM FILES\MICROSOFT VISUAL STUDIO\2022\COMMUNITY\VC\TOOLS\MSVC\14.38.33130\INCLUDE\TUPLE
C:\PROGRAM FILES\MICROSOFT VISUAL STUDIO\2022\COMMUNITY\VC\TOOLS\MSVC\14.38.33130\INCLUDE\XCALL_ONCE.H
C:\PROGRAM FILES\MICROSOFT VISUAL STUDIO\2022\COMMUNITY\VC\TOOLS\MSVC\14.38.33130\INCLUDE\XERRC.H
C:\PROGRAM FILES\MICROSOFT VISUAL STUDIO\2022\COMMUNITY\VC\TOOLS\MSVC\14.38.33130\INCLUDE\ATOMIC
C:\PROGRAM FILES\MICROSOFT VISUAL STUDIO\2022\COMMUNITY\VC\TOOLS\MSVC\14.38.33130\INCLUDE\XTHREADS.H
C:\PROGRAM FILES\MICROSOFT VISUAL STUDIO\2022\COMMUNITY\VC\TOOLS\MSVC\14.38.33130\INCLUDE\XTIMEC.H
C:\PROGRAM FILES\MICROSOFT VISUAL STUDIO\2022\COMMUNITY\VC\TOOLS\MSVC\14.38.33130\INCLUDE\CTIME
C:\PROGRAM FILES (X86)\WINDOWS KITS\10\INCLUDE\10.0.22621.0\UCRT\TIME.H
C:\PROGRAM FILES\MICROSOFT VISUAL STUDIO\2022\COMMUNITY\VC\TOOLS\MSVC\14.38.33130\INCLUDE\XLOCALE
C:\PROGRAM FILES\MICROSOFT VISUAL STUDIO\2022\COMMUNITY\VC\TOOLS\MSVC\14.38.33130\INCLUDE\MEMORY
C:\PROGRAM FILES\MICROSOFT VISUAL STUDIO\2022\COMMUNITY\VC\TOOLS\MSVC\14.38.33130\INCLUDE\TYPEINFO
C:\PROGRAM FILES\MICROSOFT VISUAL STUDIO\2022\COMMUNITY\VC\TOOLS\MSVC\14.38.33130\INCLUDE\VCRUNTIME_TYPEINFO.H
C:\PROGRAM FILES\MICROSOFT VISUAL STUDIO\2022\COMMUNITY\VC\TOOLS\MSVC\14.38.33130\INCLUDE\XFACET
C:\PROGRAM FILES\MICROSOFT VISUAL STUDIO\2022\COMMUNITY\VC\TOOLS\MSVC\14.38.33130\INCLUDE\XLOCINFO
C:\PROGRAM FILES\MICROSOFT VISUAL STUDIO\2022\COMMUNITY\VC\TOOLS\MSVC\14.38.33130\INCLUDE\__MSVC_XLOCINFO_TYPES.HPP
C:\PROGRAM FILES\MICROSOFT VISUAL STUDIO\2022\COMMUNITY\VC\TOOLS\MSVC\14.38.33130\INCLUDE\CCTYPE
C:\PROGRAM FILES (X86)\WINDOWS KITS\10\INCLUDE\10.0.22621.0\UCRT\CTYPE.H
C:\PROGRAM FILES\MICROSOFT VISUAL STUDIO\2022\COMMUNITY\VC\TOOLS\MSVC\14.38.33130\INCLUDE\CLOCALE
C:\PROGRAM FILES (X86)\WINDOWS KITS\10\INCLUDE\10.0.22621.0\UCRT\LOCALE.H
^C:\USERS\ARIEL\DOCUMENTS\VISUAL STUDIO PROYECTOS\GDEXTENSIONVS\REGISTER_TYPES.CPP
C:\USERS\ARIEL\DOCUMENTS\VISUAL STUDIO PROYECTOS\GDEXTENSIONVS\REGISTER_TYPES.H
C:\USERS\ARIEL\DOCUMENTS\VISUAL STUDIO PROYECTOS\GDEXTENSIONVS\GODOT-CPP\INCLUDE\GODOT_CPP\CORE\CLASS_DB.HPP
C:\USERS\ARIEL\DOCUMENTS\VISUAL STUDIO PROYECTOS\GDEXTENSIONVS\GODOT-CPP\GDEXTENSION\GDEXTENSION_INTERFACE.H
C:\PROGRAM FILES (X86)\WINDOWS KITS\10\INCLUDE\10.0.22621.0\UCRT\STDDEF.H
C:\PROGRAM FILES (X86)\WINDOWS KITS\10\INCLUDE\10.0.22621.0\UCRT\CORECRT.H
C:\PROGRAM FILES\MICROSOFT VISUAL STUDIO\2022\COMMUNITY\VC\TOOLS\MSVC\14.38.33130\INCLUDE\VCRUNTIME.H
C:\PROGRAM FILES\MICROSOFT VISUAL STUDIO\2022\COMMUNITY\VC\TOOLS\MSVC\14.38.33130\INCLUDE\SAL.H
C:\PROGRAM FILES\MICROSOFT VISUAL STUDIO\2022\COMMUNITY\VC\TOOLS\MSVC\14.38.33130\INCLUDE\CONCURRENCYSAL.H
C:\PROGRAM FILES\MICROSOFT VISUAL STUDIO\2022\COMMUNITY\VC\TOOLS\MSVC\14.38.33130\INCLUDE\VADEFS.H
C:\PROGRAM FILES\MICROSOFT VISUAL STUDIO\2022\COMMUNITY\VC\TOOLS\MSVC\14.38.33130\INCLUDE\STDINT.H
C:\USERS\ARIEL\DOCUMENTS\VISUAL STUDIO PROYECTOS\GDEXTENSIONVS\GODOT-CPP\INCLUDE\GODOT_CPP\CORE\DEFS.HPP
C:\PROGRAM FILES\MICROSOFT VISUAL STUDIO\2022\COMMUNITY\VC\TOOLS\MSVC\14.38.33130\INCLUDE\CSTDDEF
C:\PROGRAM FILES\MICROSOFT VISUAL STUDIO\2022\COMMUNITY\VC\TOOLS\MSVC\14.38.33130\INCLUDE\YVALS_CORE.H
C:\PROGRAM FILES\MICROSOFT VISUAL STUDIO\2022\COMMUNITY\VC\TOOLS\MSVC\14.38.33130\INCLUDE\XKEYCHECK.H
C:\PROGRAM FILES\MICROSOFT VISUAL STUDIO\2022\COMMUNITY\VC\TOOLS\MSVC\14.38.33130\INCLUDE\XTR1COMMON
C:\PROGRAM FILES\MICROSOFT VISUAL STUDIO\2022\COMMUNITY\VC\TOOLS\MSVC\14.38.33130\INCLUDE\CSTDINT
C:\PROGRAM FILES\MICROSOFT VISUAL STUDIO\2022\COMMUNITY\VC\TOOLS\MSVC\14.38.33130\INCLUDE\CSTRING
C:\PROGRAM FILES (X86)\WINDOWS KITS\10\INCLUDE\10.0.22621.0\UCRT\STRING.H
C:\PROGRAM FILES (X86)\WINDOWS KITS\10\INCLUDE\10.0.22621.0\UCRT\CORECRT_MEMORY.H
C:\PROGRAM FILES (X86)\WINDOWS KITS\10\INCLUDE\10.0.22621.0\UCRT\CORECRT_MEMCPY_S.H
C:\PROGRAM FILES (X86)\WINDOWS KITS\10\INCLUDE\10.0.22621.0\UCRT\ERRNO.H
C:\PROGRAM FILES\MICROSOFT VISUAL STUDIO\2022\COMMUNITY\VC\TOOLS\MSVC\14.38.33130\INCLUDE\VCRUNTIME_STRING.H
C:\PROGRAM FILES (X86)\WINDOWS KITS\10\INCLUDE\10.0.22621.0\UCRT\CORECRT_WSTRING.H
C:\USERS\ARIEL\DOCUMENTS\VISUAL STUDIO PROYECTOS\GDEXTENSIONVS\GODOT-CPP\INCLUDE\GODOT_CPP\CORE\ERROR_MACROS.HPP
C:\PROGRAM FILES\MICROSOFT VISUAL STUDIO\2022\COMMUNITY\VC\TOOLS\MSVC\14.38.33130\INCLUDE\ATOMIC
C:\PROGRAM FILES\MICROSOFT VISUAL STUDIO\2022\COMMUNITY\VC\TOOLS\MSVC\14.38.33130\INCLUDE\YVALS.H
C:\PROGRAM FILES (X86)\WINDOWS KITS\10\INCLUDE\10.0.22621.0\UCRT\CRTDBG.H
C:\PROGRAM FILES\MICROSOFT VISUAL STUDIO\2022\COMMUNITY\VC\TOOLS\MSVC\14.38.33130\INCLUDE\VCRUNTIME_NEW_DEBUG.H
C:\PROGRAM FILES\MICROSOFT VISUAL STUDIO\2022\COMMUNITY\VC\TOOLS\MSVC\14.38.33130\INCLUDE\VCRUNTIME_NEW.H
C:\PROGRAM FILES\MICROSOFT VISUAL STUDIO\2022\COMMUNITY\VC\TOOLS\MSVC\14.38.33130\INCLUDE\CRTDEFS.H
C:\PROGRAM FILES\MICROSOFT VISUAL STUDIO\2022\COMMUNITY\VC\TOOLS\MSVC\14.38.33130\INCLUDE\USE_ANSI.H
C:\PROGRAM FILES\MICROSOFT VISUAL STUDIO\2022\COMMUNITY\VC\TOOLS\MSVC\14.38.33130\INCLUDE\XATOMIC.H
C:\PROGRAM FILES\MICROSOFT VISUAL STUDIO\2022\COMMUNITY\VC\TOOLS\MSVC\14.38.33130\INCLUDE\TYPE_TRAITS
C:\PROGRAM FILES\MICROSOFT VISUAL STUDIO\2022\COMMUNITY\VC\TOOLS\MSVC\14.38.33130\INCLUDE\INTRIN0.H
C:\PROGRAM FILES\MICROSOFT VISUAL STUDIO\2022\COMMUNITY\VC\TOOLS\MSVC\14.38.33130\INCLUDE\INTRIN0.INL.H
C:\PROGRAM FILES\MICROSOFT VISUAL STUDIO\2022\COMMUNITY\VC\TOOLS\MSVC\14.38.33130\INCLUDE\XTHREADS.H
C:\PROGRAM FILES\MICROSOFT VISUAL STUDIO\2022\COMMUNITY\VC\TOOLS\MSVC\14.38.33130\INCLUDE\CLIMITS
C:\PROGRAM FILES\MICROSOFT VISUAL STUDIO\2022\COMMUNITY\VC\TOOLS\MSVC\14.38.33130\INCLUDE\LIMITS.H
C:\PROGRAM FILES\MICROSOFT VISUAL STUDIO\2022\COMMUNITY\VC\TOOLS\MSVC\14.38.33130\INCLUDE\XTIMEC.H
C:\PROGRAM FILES\MICROSOFT VISUAL STUDIO\2022\COMMUNITY\VC\TOOLS\MSVC\14.38.33130\INCLUDE\CTIME
C:\PROGRAM FILES (X86)\WINDOWS KITS\10\INCLUDE\10.0.22621.0\UCRT\TIME.H
C:\PROGRAM FILES (X86)\WINDOWS KITS\10\INCLUDE\10.0.22621.0\UCRT\CORECRT_WTIME.H
C:\USERS\ARIEL\DOCUMENTS\VISUAL STUDIO PROYECTOS\GDEXTENSIONVS\GODOT-CPP\INCLUDE\GODOT_CPP\CORE\METHOD_BIND.HPP
C:\USERS\ARIEL\DOCUMENTS\VISUAL STUDIO PROYECTOS\GDEXTENSIONVS\GODOT-CPP\INCLUDE\GODOT_CPP\CORE\BINDER_COMMON.HPP
C:\USERS\ARIEL\DOCUMENTS\VISUAL STUDIO PROYECTOS\GDEXTENSIONVS\GODOT-CPP\INCLUDE\GODOT_CPP\CORE\METHOD_PTRCALL.HPP
C:\USERS\ARIEL\DOCUMENTS\VISUAL STUDIO PROYECTOS\GDEXTENSIONVS\GODOT-CPP\INCLUDE\GODOT_CPP\CORE\OBJECT.HPP
C:\USERS\ARIEL\DOCUMENTS\VISUAL STUDIO PROYECTOS\GDEXTENSIONVS\GODOT-CPP\INCLUDE\GODOT_CPP\CORE\OBJECT_ID.HPP
C:\USERS\ARIEL\DOCUMENTS\VISUAL STUDIO PROYECTOS\GDEXTENSIONVS\GODOT-CPP\INCLUDE\GODOT_CPP\CORE\PROPERTY_INFO.HPP
C:\USERS\ARIEL\DOCUMENTS\VISUAL STUDIO PROYECTOS\GDEXTENSIONVS\GODOT-CPP\GEN\INCLUDE\GODOT_CPP\CLASSES\GLOBAL_CONSTANTS.HPP
C:\USERS\ARIEL\DOCUMENTS\VISUAL STUDIO PROYECTOS\GDEXTENSIONVS\GODOT-CPP\INCLUDE\GODOT_CPP\VARIANT\VARIANT.HPP
C:\USERS\ARIEL\DOCUMENTS\VISUAL STUDIO PROYECTOS\GDEXTENSIONVS\GODOT-CPP\GEN\INCLUDE\GODOT_CPP\VARIANT\BUILTIN_TYPES.HPP
C:\USERS\ARIEL\DOCUMENTS\VISUAL STUDIO PROYECTOS\GDEXTENSIONVS\GODOT-CPP\GEN\INCLUDE\GODOT_CPP\VARIANT\STRING.HPP
C:\USERS\ARIEL\DOCUMENTS\VISUAL STUDIO PROYECTOS\GDEXTENSIONVS\GODOT-CPP\INCLUDE\GODOT_CPP\VARIANT\CHAR_STRING.HPP
C:\USERS\ARIEL\DOCUMENTS\VISUAL STUDIO PROYECTOS\GDEXTENSIONVS\GODOT-CPP\INCLUDE\GODOT_CPP\TEMPLATES\COWDATA.HPP
C:\USERS\ARIEL\DOCUMENTS\VISUAL STUDIO PROYECTOS\GDEXTENSIONVS\GODOT-CPP\INCLUDE\GODOT_CPP\CORE\MATH.HPP
C:\PROGRAM FILES\MICROSOFT VISUAL STUDIO\2022\COMMUNITY\VC\TOOLS\MSVC\14.38.33130\INCLUDE\CMATH
C:\PROGRAM FILES\MICROSOFT VISUAL STUDIO\2022\COMMUNITY\VC\TOOLS\MSVC\14.38.33130\INCLUDE\CSTDLIB
C:\PROGRAM FILES (X86)\WINDOWS KITS\10\INCLUDE\10.0.22621.0\UCRT\MATH.H
C:\PROGRAM FILES (X86)\WINDOWS KITS\10\INCLUDE\10.0.22621.0\UCRT\CORECRT_MATH.H
C:\PROGRAM FILES (X86)\WINDOWS KITS\10\INCLUDE\10.0.22621.0\UCRT\STDLIB.H
C:\PROGRAM FILES (X86)\WINDOWS KITS\10\INCLUDE\10.0.22621.0\UCRT\CORECRT_MALLOC.H
C:\PROGRAM FILES (X86)\WINDOWS KITS\10\INCLUDE\10.0.22621.0\UCRT\CORECRT_SEARCH.H
C:\PROGRAM FILES (X86)\WINDOWS KITS\10\INCLUDE\10.0.22621.0\UCRT\CORECRT_WSTDLIB.H
C:\USERS\ARIEL\DOCUMENTS\VISUAL STUDIO PROYECTOS\GDEXTENSIONVS\GODOT-CPP\INCLUDE\GODOT_CPP\CORE\MEMORY.HPP
C:\USERS\ARIEL\DOCUMENTS\VISUAL STUDIO PROYECTOS\GDEXTENSIONVS\GODOT-CPP\INCLUDE\GODOT_CPP\GODOT.HPP
C:\USERS\ARIEL\DOCUMENTS\VISUAL STUDIO PROYECTOS\GDEXTENSIONVS\GODOT-CPP\INCLUDE\GODOT_CPP\TEMPLATES\SAFE_REFCOUNT.HPP
C:\PROGRAM FILES\MICROSOFT VISUAL STUDIO\2022\COMMUNITY\VC\TOOLS\MSVC\14.38.33130\INCLUDE\NEW
C:\PROGRAM FILES\MICROSOFT VISUAL STUDIO\2022\COMMUNITY\VC\TOOLS\MSVC\14.38.33130\INCLUDE\EXCEPTION
C:\PROGRAM FILES (X86)\WINDOWS KITS\10\INCLUDE\10.0.22621.0\UCRT\MALLOC.H
C:\PROGRAM FILES\MICROSOFT VISUAL STUDIO\2022\COMMUNITY\VC\TOOLS\MSVC\14.38.33130\INCLUDE\VCRUNTIME_EXCEPTION.H
C:\PROGRAM FILES\MICROSOFT VISUAL STUDIO\2022\COMMUNITY\VC\TOOLS\MSVC\14.38.33130\INCLUDE\EH.H
C:\PROGRAM FILES (X86)\WINDOWS KITS\10\INCLUDE\10.0.22621.0\UCRT\CORECRT_TERMINATE.H
C:\USERS\ARIEL\DOCUMENTS\VISUAL STUDIO PROYECTOS\GDEXTENSIONVS\GODOT-CPP\INCLUDE\GODOT_CPP\VARIANT\CHAR_UTILS.HPP
C:\USERS\ARIEL\DOCUMENTS\VISUAL STUDIO PROYECTOS\GDEXTENSIONVS\GODOT-CPP\INCLUDE\GODOT_CPP\VARIANT\VECTOR2.HPP
C:\USERS\ARIEL\DOCUMENTS\VISUAL STUDIO PROYECTOS\GDEXTENSIONVS\GODOT-CPP\INCLUDE\GODOT_CPP\VARIANT\VECTOR2I.HPP
C:\USERS\ARIEL\DOCUMENTS\VISUAL STUDIO PROYECTOS\GDEXTENSIONVS\GODOT-CPP\INCLUDE\GODOT_CPP\VARIANT\RECT2.HPP
C:\USERS\ARIEL\DOCUMENTS\VISUAL STUDIO PROYECTOS\GDEXTENSIONVS\GODOT-CPP\INCLUDE\GODOT_CPP\VARIANT\RECT2I.HPP
C:\USERS\ARIEL\DOCUMENTS\VISUAL STUDIO PROYECTOS\GDEXTENSIONVS\GODOT-CPP\INCLUDE\GODOT_CPP\VARIANT\VECTOR3.HPP
C:\USERS\ARIEL\DOCUMENTS\VISUAL STUDIO PROYECTOS\GDEXTENSIONVS\GODOT-CPP\INCLUDE\GODOT_CPP\VARIANT\VECTOR3I.HPP
C:\USERS\ARIEL\DOCUMENTS\VISUAL STUDIO PROYECTOS\GDEXTENSIONVS\GODOT-CPP\INCLUDE\GODOT_CPP\VARIANT\TRANSFORM2D.HPP
C:\USERS\ARIEL\DOCUMENTS\VISUAL STUDIO PROYECTOS\GDEXTENSIONVS\GODOT-CPP\GEN\INCLUDE\GODOT_CPP\VARIANT\PACKED_VECTOR2_ARRAY.HPP
C:\USERS\ARIEL\DOCUMENTS\VISUAL STUDIO PROYECTOS\GDEXTENSIONVS\GODOT-CPP\INCLUDE\GODOT_CPP\VARIANT\VECTOR4.HPP
C:\USERS\ARIEL\DOCUMENTS\VISUAL STUDIO PROYECTOS\GDEXTENSIONVS\GODOT-CPP\INCLUDE\GODOT_CPP\VARIANT\VECTOR4I.HPP
C:\USERS\ARIEL\DOCUMENTS\VISUAL STUDIO PROYECTOS\GDEXTENSIONVS\GODOT-CPP\INCLUDE\GODOT_CPP\VARIANT\PLANE.HPP
C:\USERS\ARIEL\DOCUMENTS\VISUAL STUDIO PROYECTOS\GDEXTENSIONVS\GODOT-CPP\INCLUDE\GODOT_CPP\VARIANT\QUATERNION.HPP
C:\USERS\ARIEL\DOCUMENTS\VISUAL STUDIO PROYECTOS\GDEXTENSIONVS\GODOT-CPP\INCLUDE\GODOT_CPP\VARIANT\AABB.HPP
C:\USERS\ARIEL\DOCUMENTS\VISUAL STUDIO PROYECTOS\GDEXTENSIONVS\GODOT-CPP\INCLUDE\GODOT_CPP\VARIANT\BASIS.HPP
C:\USERS\ARIEL\DOCUMENTS\VISUAL STUDIO PROYECTOS\GDEXTENSIONVS\GODOT-CPP\INCLUDE\GODOT_CPP\VARIANT\TRANSFORM3D.HPP
C:\USERS\ARIEL\DOCUMENTS\VISUAL STUDIO PROYECTOS\GDEXTENSIONVS\GODOT-CPP\GEN\INCLUDE\GODOT_CPP\VARIANT\PACKED_VECTOR3_ARRAY.HPP
C:\USERS\ARIEL\DOCUMENTS\VISUAL STUDIO PROYECTOS\GDEXTENSIONVS\GODOT-CPP\INCLUDE\GODOT_CPP\VARIANT\PROJECTION.HPP
C:\USERS\ARIEL\DOCUMENTS\VISUAL STUDIO PROYECTOS\GDEXTENSIONVS\GODOT-CPP\INCLUDE\GODOT_CPP\VARIANT\COLOR.HPP
C:\USERS\ARIEL\DOCUMENTS\VISUAL STUDIO PROYECTOS\GDEXTENSIONVS\GODOT-CPP\GEN\INCLUDE\GODOT_CPP\VARIANT\STRING_NAME.HPP
C:\USERS\ARIEL\DOCUMENTS\VISUAL STUDIO PROYECTOS\GDEXTENSIONVS\GODOT-CPP\GEN\INCLUDE\GODOT_CPP\VARIANT\NODE_PATH.HPP
C:\USERS\ARIEL\DOCUMENTS\VISUAL STUDIO PROYECTOS\GDEXTENSIONVS\GODOT-CPP\GEN\INCLUDE\GODOT_CPP\VARIANT\RID.HPP
C:\USERS\ARIEL\DOCUMENTS\VISUAL STUDIO PROYECTOS\GDEXTENSIONVS\GODOT-CPP\GEN\INCLUDE\GODOT_CPP\VARIANT\CALLABLE.HPP
C:\USERS\ARIEL\DOCUMENTS\VISUAL STUDIO PROYECTOS\GDEXTENSIONVS\GODOT-CPP\INCLUDE\GODOT_CPP\VARIANT\CALLABLE_CUSTOM.HPP
C:\USERS\ARIEL\DOCUMENTS\VISUAL STUDIO PROYECTOS\GDEXTENSIONVS\GODOT-CPP\GEN\INCLUDE\GODOT_CPP\VARIANT\SIGNAL.HPP
C:\USERS\ARIEL\DOCUMENTS\VISUAL STUDIO PROYECTOS\GDEXTENSIONVS\GODOT-CPP\GEN\INCLUDE\GODOT_CPP\VARIANT\DICTIONARY.HPP
C:\USERS\ARIEL\DOCUMENTS\VISUAL STUDIO PROYECTOS\GDEXTENSIONVS\GODOT-CPP\GEN\INCLUDE\GODOT_CPP\VARIANT\ARRAY.HPP
C:\USERS\ARIEL\DOCUMENTS\VISUAL STUDIO PROYECTOS\GDEXTENSIONVS\GODOT-CPP\INCLUDE\GODOT_CPP\VARIANT\ARRAY_HELPERS.HPP
C:\USERS\ARIEL\DOCUMENTS\VISUAL STUDIO PROYECTOS\GDEXTENSIONVS\GODOT-CPP\GEN\INCLUDE\GODOT_CPP\VARIANT\PACKED_BYTE_ARRAY.HPP
C:\USERS\ARIEL\DOCUMENTS\VISUAL STUDIO PROYECTOS\GDEXTENSIONVS\GODOT-CPP\GEN\INCLUDE\GODOT_CPP\VARIANT\PACKED_INT32_ARRAY.HPP
C:\USERS\ARIEL\DOCUMENTS\VISUAL STUDIO PROYECTOS\GDEXTENSIONVS\GODOT-CPP\GEN\INCLUDE\GODOT_CPP\VARIANT\PACKED_INT64_ARRAY.HPP
C:\USERS\ARIEL\DOCUMENTS\VISUAL STUDIO PROYECTOS\GDEXTENSIONVS\GODOT-CPP\GEN\INCLUDE\GODOT_CPP\VARIANT\PACKED_FLOAT32_ARRAY.HPP
C:\USERS\ARIEL\DOCUMENTS\VISUAL STUDIO PROYECTOS\GDEXTENSIONVS\GODOT-CPP\GEN\INCLUDE\GODOT_CPP\VARIANT\PACKED_FLOAT64_ARRAY.HPP
C:\USERS\ARIEL\DOCUMENTS\VISUAL STUDIO PROYECTOS\GDEXTENSIONVS\GODOT-CPP\GEN\INCLUDE\GODOT_CPP\VARIANT\PACKED_STRING_ARRAY.HPP
C:\USERS\ARIEL\DOCUMENTS\VISUAL STUDIO PROYECTOS\GDEXTENSIONVS\GODOT-CPP\GEN\INCLUDE\GODOT_CPP\VARIANT\PACKED_COLOR_ARRAY.HPP
C:\USERS\ARIEL\DOCUMENTS\VISUAL STUDIO PROYECTOS\GDEXTENSIONVS\GODOT-CPP\GEN\INCLUDE\GODOT_CPP\VARIANT\VARIANT_SIZE.HPP
C:\PROGRAM FILES\MICROSOFT VISUAL STUDIO\2022\COMMUNITY\VC\TOOLS\MSVC\14.38.33130\INCLUDE\ARRAY
C:\PROGRAM FILES\MICROSOFT VISUAL STUDIO\2022\COMMUNITY\VC\TOOLS\MSVC\14.38.33130\INCLUDE\XUTILITY
C:\PROGRAM FILES\MICROSOFT VISUAL STUDIO\2022\COMMUNITY\VC\TOOLS\MSVC\14.38.33130\INCLUDE\__MSVC_ITER_CORE.HPP
C:\PROGRAM FILES\MICROSOFT VISUAL STUDIO\2022\COMMUNITY\VC\TOOLS\MSVC\14.38.33130\INCLUDE\UTILITY
C:\PROGRAM FILES\MICROSOFT VISUAL STUDIO\2022\COMMUNITY\VC\TOOLS\MSVC\14.38.33130\INCLUDE\INITIALIZER_LIST
C:\USERS\ARIEL\DOCUMENTS\VISUAL STUDIO PROYECTOS\GDEXTENSIONVS\GODOT-CPP\GEN\INCLUDE\GODOT_CPP\VARIANT\BUILTIN_VARARG_METHODS.HPP
C:\USERS\ARIEL\DOCUMENTS\VISUAL STUDIO PROYECTOS\GDEXTENSIONVS\GODOT-CPP\GEN\INCLUDE\GODOT_CPP\CLASSES\OBJECT.HPP
C:\USERS\ARIEL\DOCUMENTS\VISUAL STUDIO PROYECTOS\GDEXTENSIONVS\GODOT-CPP\INCLUDE\GODOT_CPP\VARIANT\TYPED_ARRAY.HPP
C:\USERS\ARIEL\DOCUMENTS\VISUAL STUDIO PROYECTOS\GDEXTENSIONVS\GODOT-CPP\INCLUDE\GODOT_CPP\CLASSES\WRAPPED.HPP
C:\USERS\ARIEL\DOCUMENTS\VISUAL STUDIO PROYECTOS\GDEXTENSIONVS\GODOT-CPP\INCLUDE\GODOT_CPP\TEMPLATES\LIST.HPP
C:\USERS\ARIEL\DOCUMENTS\VISUAL STUDIO PROYECTOS\GDEXTENSIONVS\GODOT-CPP\INCLUDE\GODOT_CPP\TEMPLATES\SORT_ARRAY.HPP
C:\PROGRAM FILES\MICROSOFT VISUAL STUDIO\2022\COMMUNITY\VC\TOOLS\MSVC\14.38.33130\INCLUDE\VECTOR
C:\PROGRAM FILES\MICROSOFT VISUAL STUDIO\2022\COMMUNITY\VC\TOOLS\MSVC\14.38.33130\INCLUDE\__MSVC_BIT_UTILS.HPP
C:\PROGRAM FILES\MICROSOFT VISUAL STUDIO\2022\COMMUNITY\VC\TOOLS\MSVC\14.38.33130\INCLUDE\__MSVC_SANITIZER_ANNOTATE_CONTAINER.HPP
C:\PROGRAM FILES\MICROSOFT VISUAL STUDIO\2022\COMMUNITY\VC\TOOLS\MSVC\14.38.33130\INCLUDE\XMEMORY
C:\PROGRAM FILES\MICROSOFT VISUAL STUDIO\2022\COMMUNITY\VC\TOOLS\MSVC\14.38.33130\INCLUDE\LIMITS
C:\PROGRAM FILES\MICROSOFT VISUAL STUDIO\2022\COMMUNITY\VC\TOOLS\MSVC\14.38.33130\INCLUDE\CFLOAT
C:\PROGRAM FILES (X86)\WINDOWS KITS\10\INCLUDE\10.0.22621.0\UCRT\FLOAT.H
C:\PROGRAM FILES\MICROSOFT VISUAL STUDIO\2022\COMMUNITY\VC\TOOLS\MSVC\14.38.33130\INCLUDE\CWCHAR
C:\PROGRAM FILES\MICROSOFT VISUAL STUDIO\2022\COMMUNITY\VC\TOOLS\MSVC\14.38.33130\INCLUDE\CSTDIO
C:\PROGRAM FILES (X86)\WINDOWS KITS\10\INCLUDE\10.0.22621.0\UCRT\STDIO.H
C:\PROGRAM FILES (X86)\WINDOWS KITS\10\INCLUDE\10.0.22621.0\UCRT\CORECRT_WSTDIO.H
C:\PROGRAM FILES (X86)\WINDOWS KITS\10\INCLUDE\10.0.22621.0\UCRT\CORECRT_STDIO_CONFIG.H
C:\PROGRAM FILES (X86)\WINDOWS KITS\10\INCLUDE\10.0.22621.0\UCRT\WCHAR.H
C:\PROGRAM FILES (X86)\WINDOWS KITS\10\INCLUDE\10.0.22621.0\UCRT\CORECRT_WCONIO.H
C:\PROGRAM FILES (X86)\WINDOWS KITS\10\INCLUDE\10.0.22621.0\UCRT\CORECRT_WCTYPE.H
C:\PROGRAM FILES (X86)\WINDOWS KITS\10\INCLUDE\10.0.22621.0\UCRT\CORECRT_WDIRECT.H
C:\PROGRAM FILES (X86)\WINDOWS KITS\10\INCLUDE\10.0.22621.0\UCRT\CORECRT_WIO.H
C:\PROGRAM FILES (X86)\WINDOWS KITS\10\INCLUDE\10.0.22621.0\UCRT\CORECRT_SHARE.H
C:\PROGRAM FILES (X86)\WINDOWS KITS\10\INCLUDE\10.0.22621.0\UCRT\CORECRT_WPROCESS.H
C:\PROGRAM FILES (X86)\WINDOWS KITS\10\INCLUDE\10.0.22621.0\UCRT\SYS\STAT.H
C:\PROGRAM FILES (X86)\WINDOWS KITS\10\INCLUDE\10.0.22621.0\UCRT\SYS\TYPES.H
C:\PROGRAM FILES\MICROSOFT VISUAL STUDIO\2022\COMMUNITY\VC\TOOLS\MSVC\14.38.33130\INCLUDE\XPOLYMORPHIC_ALLOCATOR.H
C:\PROGRAM FILES\MICROSOFT VISUAL STUDIO\2022\COMMUNITY\VC\TOOLS\MSVC\14.38.33130\INCLUDE\TUPLE
C:\USERS\ARIEL\DOCUMENTS\VISUAL STUDIO PROYECTOS\GDEXTENSIONVS\GODOT-CPP\INCLUDE\GODOT_CPP\CORE\TYPE_INFO.HPP
C:\USERS\ARIEL\DOCUMENTS\VISUAL STUDIO PROYECTOS\GDEXTENSIONVS\GODOT-CPP\GEN\INCLUDE\GODOT_CPP\CLASSES\GLOBAL_CONSTANTS_BINDS.HPP
C:\USERS\ARIEL\DOCUMENTS\VISUAL STUDIO PROYECTOS\GDEXTENSIONVS\GODOT-CPP\GEN\INCLUDE\GODOT_CPP\VARIANT\BUILTIN_BINDS.HPP
C:\PROGRAM FILES\MICROSOFT VISUAL STUDIO\2022\COMMUNITY\VC\TOOLS\MSVC\14.38.33130\INCLUDE\STRING
C:\PROGRAM FILES\MICROSOFT VISUAL STUDIO\2022\COMMUNITY\VC\TOOLS\MSVC\14.38.33130\INCLUDE\XSTRING
C:\PROGRAM FILES\MICROSOFT VISUAL STUDIO\2022\COMMUNITY\VC\TOOLS\MSVC\14.38.33130\INCLUDE\IOSFWD
C:\PROGRAM FILES\MICROSOFT VISUAL STUDIO\2022\COMMUNITY\VC\TOOLS\MSVC\14.38.33130\INCLUDE\CCTYPE
C:\PROGRAM FILES (X86)\WINDOWS KITS\10\INCLUDE\10.0.22621.0\UCRT\CTYPE.H
C:\PROGRAM FILES\MICROSOFT VISUAL STUDIO\2022\COMMUNITY\VC\TOOLS\MSVC\14.38.33130\INCLUDE\IOSTREAM
C:\PROGRAM FILES\MICROSOFT VISUAL STUDIO\2022\COMMUNITY\VC\TOOLS\MSVC\14.38.33130\INCLUDE\ISTREAM
C:\PROGRAM FILES\MICROSOFT VISUAL STUDIO\2022\COMMUNITY\VC\TOOLS\MSVC\14.38.33130\INCLUDE\OSTREAM
C:\PROGRAM FILES\MICROSOFT VISUAL STUDIO\2022\COMMUNITY\VC\TOOLS\MSVC\14.38.33130\INCLUDE\IOS
C:\PROGRAM FILES\MICROSOFT VISUAL STUDIO\2022\COMMUNITY\VC\TOOLS\MSVC\14.38.33130\INCLUDE\XLOCNUM
C:\PROGRAM FILES\MICROSOFT VISUAL STUDIO\2022\COMMUNITY\VC\TOOLS\MSVC\14.38.33130\INCLUDE\ITERATOR
C:\PROGRAM FILES\MICROSOFT VISUAL STUDIO\2022\COMMUNITY\VC\TOOLS\MSVC\14.38.33130\INCLUDE\STREAMBUF
C:\PROGRAM FILES\MICROSOFT VISUAL STUDIO\2022\COMMUNITY\VC\TOOLS\MSVC\14.38.33130\INCLUDE\XIOSBASE
C:\PROGRAM FILES (X86)\WINDOWS KITS\10\INCLUDE\10.0.22621.0\UCRT\SHARE.H
C:\PROGRAM FILES\MICROSOFT VISUAL STUDIO\2022\COMMUNITY\VC\TOOLS\MSVC\14.38.33130\INCLUDE\SYSTEM_ERROR
C:\PROGRAM FILES\MICROSOFT VISUAL STUDIO\2022\COMMUNITY\VC\TOOLS\MSVC\14.38.33130\INCLUDE\__MSVC_SYSTEM_ERROR_ABI.HPP
C:\PROGRAM FILES\MICROSOFT VISUAL STUDIO\2022\COMMUNITY\VC\TOOLS\MSVC\14.38.33130\INCLUDE\CERRNO
C:\PROGRAM FILES\MICROSOFT VISUAL STUDIO\2022\COMMUNITY\VC\TOOLS\MSVC\14.38.33130\INCLUDE\STDEXCEPT
C:\PROGRAM FILES\MICROSOFT VISUAL STUDIO\2022\COMMUNITY\VC\TOOLS\MSVC\14.38.33130\INCLUDE\XCALL_ONCE.H
C:\PROGRAM FILES\MICROSOFT VISUAL STUDIO\2022\COMMUNITY\VC\TOOLS\MSVC\14.38.33130\INCLUDE\XERRC.H
C:\PROGRAM FILES\MICROSOFT VISUAL STUDIO\2022\COMMUNITY\VC\TOOLS\MSVC\14.38.33130\INCLUDE\XLOCALE
C:\PROGRAM FILES\MICROSOFT VISUAL STUDIO\2022\COMMUNITY\VC\TOOLS\MSVC\14.38.33130\INCLUDE\MEMORY
C:\PROGRAM FILES\MICROSOFT VISUAL STUDIO\2022\COMMUNITY\VC\TOOLS\MSVC\14.38.33130\INCLUDE\TYPEINFO
C:\PROGRAM FILES\MICROSOFT VISUAL STUDIO\2022\COMMUNITY\VC\TOOLS\MSVC\14.38.33130\INCLUDE\VCRUNTIME_TYPEINFO.H
C:\PROGRAM FILES\MICROSOFT VISUAL STUDIO\2022\COMMUNITY\VC\TOOLS\MSVC\14.38.33130\INCLUDE\XFACET
C:\PROGRAM FILES\MICROSOFT VISUAL STUDIO\2022\COMMUNITY\VC\TOOLS\MSVC\14.38.33130\INCLUDE\XLOCINFO
C:\PROGRAM FILES\MICROSOFT VISUAL STUDIO\2022\COMMUNITY\VC\TOOLS\MSVC\14.38.33130\INCLUDE\__MSVC_XLOCINFO_TYPES.HPP
C:\PROGRAM FILES\MICROSOFT VISUAL STUDIO\2022\COMMUNITY\VC\TOOLS\MSVC\14.38.33130\INCLUDE\CLOCALE
C:\PROGRAM FILES (X86)\WINDOWS KITS\10\INCLUDE\10.0.22621.0\UCRT\LOCALE.H
C:\USERS\ARIEL\DOCUMENTS\VISUAL STUDIO PROYECTOS\GDEXTENSIONVS\GODOT-CPP\GEN\INCLUDE\GODOT_CPP\CLASSES\CLASS_DB_SINGLETON.HPP
C:\USERS\ARIEL\DOCUMENTS\VISUAL STUDIO PROYECTOS\GDEXTENSIONVS\GODOT-CPP\INCLUDE\GODOT_CPP\VARIANT\CALLABLE_METHOD_POINTER.HPP
C:\PROGRAM FILES\MICROSOFT VISUAL STUDIO\2022\COMMUNITY\VC\TOOLS\MSVC\14.38.33130\INCLUDE\LIST
C:\PROGRAM FILES\MICROSOFT VISUAL STUDIO\2022\COMMUNITY\VC\TOOLS\MSVC\14.38.33130\INCLUDE\SET
C:\PROGRAM FILES\MICROSOFT VISUAL STUDIO\2022\COMMUNITY\VC\TOOLS\MSVC\14.38.33130\INCLUDE\XTREE
C:\PROGRAM FILES\MICROSOFT VISUAL STUDIO\2022\COMMUNITY\VC\TOOLS\MSVC\14.38.33130\INCLUDE\XNODE_HANDLE.H
C:\PROGRAM FILES\MICROSOFT VISUAL STUDIO\2022\COMMUNITY\VC\TOOLS\MSVC\14.38.33130\INCLUDE\UNORDERED_MAP
C:\PROGRAM FILES\MICROSOFT VISUAL STUDIO\2022\COMMUNITY\VC\TOOLS\MSVC\14.38.33130\INCLUDE\XHASH
C:\PROGRAM FILES\MICROSOFT VISUAL STUDIO\2022\COMMUNITY\VC\TOOLS\MSVC\14.38.33130\INCLUDE\XBIT_OPS.H
C:\USERS\ARIEL\DOCUMENTS\VISUAL STUDIO PROYECTOS\GDEXTENSIONVS\VSTESTGDNATIVE.H
C:\USERS\ARIEL\DOCUMENTS\VISUAL STUDIO PROYECTOS\GDEXTENSIONVS\GODOT-CPP\GEN\INCLUDE\GODOT_CPP\CLASSES\NODE.HPP
C:\USERS\ARIEL\DOCUMENTS\VISUAL STUDIO PROYECTOS\GDEXTENSIONVS\GODOT-CPP\INCLUDE\GODOT_CPP\CLASSES\REF.HPP
C:\USERS\ARIEL\DOCUMENTS\VISUAL STUDIO PROYECTOS\GDEXTENSIONVS\GODOT-CPP\GEN\INCLUDE\GODOT_CPP\CLASSES\REF_COUNTED.HPP
^C:\USERS\ARIEL\DOCUMENTS\VISUAL STUDIO PROYECTOS\GDEXTENSIONVS\VSTESTGDNATIVE.CPP
C:\USERS\ARIEL\DOCUMENTS\VISUAL STUDIO PROYECTOS\GDEXTENSIONVS\VSTESTGDNATIVE.H
C:\USERS\ARIEL\DOCUMENTS\VISUAL STUDIO PROYECTOS\GDEXTENSIONVS\GODOT-CPP\GEN\INCLUDE\GODOT_CPP\CLASSES\NODE.HPP
C:\USERS\ARIEL\DOCUMENTS\VISUAL STUDIO PROYECTOS\GDEXTENSIONVS\GODOT-CPP\GEN\INCLUDE\GODOT_CPP\VARIANT\ARRAY.HPP
C:\USERS\ARIEL\DOCUMENTS\VISUAL STUDIO PROYECTOS\GDEXTENSIONVS\GODOT-CPP\INCLUDE\GODOT_CPP\CORE\DEFS.HPP
C:\PROGRAM FILES\MICROSOFT VISUAL STUDIO\2022\COMMUNITY\VC\TOOLS\MSVC\14.38.33130\INCLUDE\CSTDDEF
C:\PROGRAM FILES\MICROSOFT VISUAL STUDIO\2022\COMMUNITY\VC\TOOLS\MSVC\14.38.33130\INCLUDE\YVALS_CORE.H
C:\PROGRAM FILES\MICROSOFT VISUAL STUDIO\2022\COMMUNITY\VC\TOOLS\MSVC\14.38.33130\INCLUDE\VCRUNTIME.H
C:\PROGRAM FILES\MICROSOFT VISUAL STUDIO\2022\COMMUNITY\VC\TOOLS\MSVC\14.38.33130\INCLUDE\SAL.H
C:\PROGRAM FILES\MICROSOFT VISUAL STUDIO\2022\COMMUNITY\VC\TOOLS\MSVC\14.38.33130\INCLUDE\CONCURRENCYSAL.H
C:\PROGRAM FILES\MICROSOFT VISUAL STUDIO\2022\COMMUNITY\VC\TOOLS\MSVC\14.38.33130\INCLUDE\VADEFS.H
C:\PROGRAM FILES\MICROSOFT VISUAL STUDIO\2022\COMMUNITY\VC\TOOLS\MSVC\14.38.33130\INCLUDE\XKEYCHECK.H
C:\PROGRAM FILES (X86)\WINDOWS KITS\10\INCLUDE\10.0.22621.0\UCRT\STDDEF.H
C:\PROGRAM FILES (X86)\WINDOWS KITS\10\INCLUDE\10.0.22621.0\UCRT\CORECRT.H
C:\PROGRAM FILES\MICROSOFT VISUAL STUDIO\2022\COMMUNITY\VC\TOOLS\MSVC\14.38.33130\INCLUDE\XTR1COMMON
C:\PROGRAM FILES\MICROSOFT VISUAL STUDIO\2022\COMMUNITY\VC\TOOLS\MSVC\14.38.33130\INCLUDE\CSTDINT
C:\PROGRAM FILES\MICROSOFT VISUAL STUDIO\2022\COMMUNITY\VC\TOOLS\MSVC\14.38.33130\INCLUDE\STDINT.H
C:\PROGRAM FILES\MICROSOFT VISUAL STUDIO\2022\COMMUNITY\VC\TOOLS\MSVC\14.38.33130\INCLUDE\CSTRING
C:\PROGRAM FILES (X86)\WINDOWS KITS\10\INCLUDE\10.0.22621.0\UCRT\STRING.H
C:\PROGRAM FILES (X86)\WINDOWS KITS\10\INCLUDE\10.0.22621.0\UCRT\CORECRT_MEMORY.H
C:\PROGRAM FILES (X86)\WINDOWS KITS\10\INCLUDE\10.0.22621.0\UCRT\CORECRT_MEMCPY_S.H
C:\PROGRAM FILES (X86)\WINDOWS KITS\10\INCLUDE\10.0.22621.0\UCRT\ERRNO.H
C:\PROGRAM FILES\MICROSOFT VISUAL STUDIO\2022\COMMUNITY\VC\TOOLS\MSVC\14.38.33130\INCLUDE\VCRUNTIME_STRING.H
C:\PROGRAM FILES (X86)\WINDOWS KITS\10\INCLUDE\10.0.22621.0\UCRT\CORECRT_WSTRING.H
C:\USERS\ARIEL\DOCUMENTS\VISUAL STUDIO PROYECTOS\GDEXTENSIONVS\GODOT-CPP\INCLUDE\GODOT_CPP\VARIANT\ARRAY_HELPERS.HPP
C:\USERS\ARIEL\DOCUMENTS\VISUAL STUDIO PROYECTOS\GDEXTENSIONVS\GODOT-CPP\GDEXTENSION\GDEXTENSION_INTERFACE.H
C:\USERS\ARIEL\DOCUMENTS\VISUAL STUDIO PROYECTOS\GDEXTENSIONVS\GODOT-CPP\GEN\INCLUDE\GODOT_CPP\CLASSES\GLOBAL_CONSTANTS.HPP
C:\USERS\ARIEL\DOCUMENTS\VISUAL STUDIO PROYECTOS\GDEXTENSIONVS\GODOT-CPP\GEN\INCLUDE\GODOT_CPP\VARIANT\NODE_PATH.HPP
C:\USERS\ARIEL\DOCUMENTS\VISUAL STUDIO PROYECTOS\GDEXTENSIONVS\GODOT-CPP\INCLUDE\GODOT_CPP\CORE\OBJECT.HPP
C:\USERS\ARIEL\DOCUMENTS\VISUAL STUDIO PROYECTOS\GDEXTENSIONVS\GODOT-CPP\INCLUDE\GODOT_CPP\CORE\OBJECT_ID.HPP
C:\USERS\ARIEL\DOCUMENTS\VISUAL STUDIO PROYECTOS\GDEXTENSIONVS\GODOT-CPP\INCLUDE\GODOT_CPP\CORE\PROPERTY_INFO.HPP
C:\USERS\ARIEL\DOCUMENTS\VISUAL STUDIO PROYECTOS\GDEXTENSIONVS\GODOT-CPP\INCLUDE\GODOT_CPP\VARIANT\VARIANT.HPP
C:\USERS\ARIEL\DOCUMENTS\VISUAL STUDIO PROYECTOS\GDEXTENSIONVS\GODOT-CPP\GEN\INCLUDE\GODOT_CPP\VARIANT\BUILTIN_TYPES.HPP
C:\USERS\ARIEL\DOCUMENTS\VISUAL STUDIO PROYECTOS\GDEXTENSIONVS\GODOT-CPP\GEN\INCLUDE\GODOT_CPP\VARIANT\STRING.HPP
C:\USERS\ARIEL\DOCUMENTS\VISUAL STUDIO PROYECTOS\GDEXTENSIONVS\GODOT-CPP\INCLUDE\GODOT_CPP\VARIANT\CHAR_STRING.HPP
C:\USERS\ARIEL\DOCUMENTS\VISUAL STUDIO PROYECTOS\GDEXTENSIONVS\GODOT-CPP\INCLUDE\GODOT_CPP\TEMPLATES\COWDATA.HPP
C:\USERS\ARIEL\DOCUMENTS\VISUAL STUDIO PROYECTOS\GDEXTENSIONVS\GODOT-CPP\INCLUDE\GODOT_CPP\CORE\ERROR_MACROS.HPP
C:\PROGRAM FILES\MICROSOFT VISUAL STUDIO\2022\COMMUNITY\VC\TOOLS\MSVC\14.38.33130\INCLUDE\ATOMIC
C:\PROGRAM FILES\MICROSOFT VISUAL STUDIO\2022\COMMUNITY\VC\TOOLS\MSVC\14.38.33130\INCLUDE\YVALS.H
C:\PROGRAM FILES (X86)\WINDOWS KITS\10\INCLUDE\10.0.22621.0\UCRT\CRTDBG.H
C:\PROGRAM FILES\MICROSOFT VISUAL STUDIO\2022\COMMUNITY\VC\TOOLS\MSVC\14.38.33130\INCLUDE\VCRUNTIME_NEW_DEBUG.H
C:\PROGRAM FILES\MICROSOFT VISUAL STUDIO\2022\COMMUNITY\VC\TOOLS\MSVC\14.38.33130\INCLUDE\VCRUNTIME_NEW.H
C:\PROGRAM FILES\MICROSOFT VISUAL STUDIO\2022\COMMUNITY\VC\TOOLS\MSVC\14.38.33130\INCLUDE\CRTDEFS.H
C:\PROGRAM FILES\MICROSOFT VISUAL STUDIO\2022\COMMUNITY\VC\TOOLS\MSVC\14.38.33130\INCLUDE\USE_ANSI.H
C:\PROGRAM FILES\MICROSOFT VISUAL STUDIO\2022\COMMUNITY\VC\TOOLS\MSVC\14.38.33130\INCLUDE\XATOMIC.H
C:\PROGRAM FILES\MICROSOFT VISUAL STUDIO\2022\COMMUNITY\VC\TOOLS\MSVC\14.38.33130\INCLUDE\TYPE_TRAITS
C:\PROGRAM FILES\MICROSOFT VISUAL STUDIO\2022\COMMUNITY\VC\TOOLS\MSVC\14.38.33130\INCLUDE\INTRIN0.H
C:\PROGRAM FILES\MICROSOFT VISUAL STUDIO\2022\COMMUNITY\VC\TOOLS\MSVC\14.38.33130\INCLUDE\INTRIN0.INL.H
C:\PROGRAM FILES\MICROSOFT VISUAL STUDIO\2022\COMMUNITY\VC\TOOLS\MSVC\14.38.33130\INCLUDE\XTHREADS.H
C:\PROGRAM FILES\MICROSOFT VISUAL STUDIO\2022\COMMUNITY\VC\TOOLS\MSVC\14.38.33130\INCLUDE\CLIMITS
C:\PROGRAM FILES\MICROSOFT VISUAL STUDIO\2022\COMMUNITY\VC\TOOLS\MSVC\14.38.33130\INCLUDE\LIMITS.H
C:\PROGRAM FILES\MICROSOFT VISUAL STUDIO\2022\COMMUNITY\VC\TOOLS\MSVC\14.38.33130\INCLUDE\XTIMEC.H
C:\PROGRAM FILES\MICROSOFT VISUAL STUDIO\2022\COMMUNITY\VC\TOOLS\MSVC\14.38.33130\INCLUDE\CTIME
C:\PROGRAM FILES (X86)\WINDOWS KITS\10\INCLUDE\10.0.22621.0\UCRT\TIME.H
C:\PROGRAM FILES (X86)\WINDOWS KITS\10\INCLUDE\10.0.22621.0\UCRT\CORECRT_WTIME.H
C:\USERS\ARIEL\DOCUMENTS\VISUAL STUDIO PROYECTOS\GDEXTENSIONVS\GODOT-CPP\INCLUDE\GODOT_CPP\CORE\MATH.HPP
C:\PROGRAM FILES\MICROSOFT VISUAL STUDIO\2022\COMMUNITY\VC\TOOLS\MSVC\14.38.33130\INCLUDE\CMATH
C:\PROGRAM FILES\MICROSOFT VISUAL STUDIO\2022\COMMUNITY\VC\TOOLS\MSVC\14.38.33130\INCLUDE\CSTDLIB
C:\PROGRAM FILES (X86)\WINDOWS KITS\10\INCLUDE\10.0.22621.0\UCRT\MATH.H
C:\PROGRAM FILES (X86)\WINDOWS KITS\10\INCLUDE\10.0.22621.0\UCRT\CORECRT_MATH.H
C:\PROGRAM FILES (X86)\WINDOWS KITS\10\INCLUDE\10.0.22621.0\UCRT\STDLIB.H
C:\PROGRAM FILES (X86)\WINDOWS KITS\10\INCLUDE\10.0.22621.0\UCRT\CORECRT_MALLOC.H
C:\PROGRAM FILES (X86)\WINDOWS KITS\10\INCLUDE\10.0.22621.0\UCRT\CORECRT_SEARCH.H
C:\PROGRAM FILES (X86)\WINDOWS KITS\10\INCLUDE\10.0.22621.0\UCRT\CORECRT_WSTDLIB.H
C:\USERS\ARIEL\DOCUMENTS\VISUAL STUDIO PROYECTOS\GDEXTENSIONVS\GODOT-CPP\INCLUDE\GODOT_CPP\CORE\MEMORY.HPP
C:\USERS\ARIEL\DOCUMENTS\VISUAL STUDIO PROYECTOS\GDEXTENSIONVS\GODOT-CPP\INCLUDE\GODOT_CPP\GODOT.HPP
C:\USERS\ARIEL\DOCUMENTS\VISUAL STUDIO PROYECTOS\GDEXTENSIONVS\GODOT-CPP\INCLUDE\GODOT_CPP\TEMPLATES\SAFE_REFCOUNT.HPP
C:\PROGRAM FILES\MICROSOFT VISUAL STUDIO\2022\COMMUNITY\VC\TOOLS\MSVC\14.38.33130\INCLUDE\NEW
C:\PROGRAM FILES\MICROSOFT VISUAL STUDIO\2022\COMMUNITY\VC\TOOLS\MSVC\14.38.33130\INCLUDE\EXCEPTION
C:\PROGRAM FILES (X86)\WINDOWS KITS\10\INCLUDE\10.0.22621.0\UCRT\MALLOC.H
C:\PROGRAM FILES\MICROSOFT VISUAL STUDIO\2022\COMMUNITY\VC\TOOLS\MSVC\14.38.33130\INCLUDE\VCRUNTIME_EXCEPTION.H
C:\PROGRAM FILES\MICROSOFT VISUAL STUDIO\2022\COMMUNITY\VC\TOOLS\MSVC\14.38.33130\INCLUDE\EH.H
C:\PROGRAM FILES (X86)\WINDOWS KITS\10\INCLUDE\10.0.22621.0\UCRT\CORECRT_TERMINATE.H
C:\USERS\ARIEL\DOCUMENTS\VISUAL STUDIO PROYECTOS\GDEXTENSIONVS\GODOT-CPP\INCLUDE\GODOT_CPP\VARIANT\CHAR_UTILS.HPP
C:\USERS\ARIEL\DOCUMENTS\VISUAL STUDIO PROYECTOS\GDEXTENSIONVS\GODOT-CPP\INCLUDE\GODOT_CPP\VARIANT\VECTOR2.HPP
C:\USERS\ARIEL\DOCUMENTS\VISUAL STUDIO PROYECTOS\GDEXTENSIONVS\GODOT-CPP\INCLUDE\GODOT_CPP\VARIANT\VECTOR2I.HPP
C:\USERS\ARIEL\DOCUMENTS\VISUAL STUDIO PROYECTOS\GDEXTENSIONVS\GODOT-CPP\INCLUDE\GODOT_CPP\VARIANT\RECT2.HPP
C:\USERS\ARIEL\DOCUMENTS\VISUAL STUDIO PROYECTOS\GDEXTENSIONVS\GODOT-CPP\INCLUDE\GODOT_CPP\VARIANT\RECT2I.HPP
C:\USERS\ARIEL\DOCUMENTS\VISUAL STUDIO PROYECTOS\GDEXTENSIONVS\GODOT-CPP\INCLUDE\GODOT_CPP\VARIANT\VECTOR3.HPP
C:\USERS\ARIEL\DOCUMENTS\VISUAL STUDIO PROYECTOS\GDEXTENSIONVS\GODOT-CPP\INCLUDE\GODOT_CPP\VARIANT\VECTOR3I.HPP
C:\USERS\ARIEL\DOCUMENTS\VISUAL STUDIO PROYECTOS\GDEXTENSIONVS\GODOT-CPP\INCLUDE\GODOT_CPP\VARIANT\TRANSFORM2D.HPP
C:\USERS\ARIEL\DOCUMENTS\VISUAL STUDIO PROYECTOS\GDEXTENSIONVS\GODOT-CPP\GEN\INCLUDE\GODOT_CPP\VARIANT\PACKED_VECTOR2_ARRAY.HPP
C:\USERS\ARIEL\DOCUMENTS\VISUAL STUDIO PROYECTOS\GDEXTENSIONVS\GODOT-CPP\INCLUDE\GODOT_CPP\VARIANT\VECTOR4.HPP
C:\USERS\ARIEL\DOCUMENTS\VISUAL STUDIO PROYECTOS\GDEXTENSIONVS\GODOT-CPP\INCLUDE\GODOT_CPP\VARIANT\VECTOR4I.HPP
C:\USERS\ARIEL\DOCUMENTS\VISUAL STUDIO PROYECTOS\GDEXTENSIONVS\GODOT-CPP\INCLUDE\GODOT_CPP\VARIANT\PLANE.HPP
C:\USERS\ARIEL\DOCUMENTS\VISUAL STUDIO PROYECTOS\GDEXTENSIONVS\GODOT-CPP\INCLUDE\GODOT_CPP\VARIANT\QUATERNION.HPP
C:\USERS\ARIEL\DOCUMENTS\VISUAL STUDIO PROYECTOS\GDEXTENSIONVS\GODOT-CPP\INCLUDE\GODOT_CPP\VARIANT\AABB.HPP
C:\USERS\ARIEL\DOCUMENTS\VISUAL STUDIO PROYECTOS\GDEXTENSIONVS\GODOT-CPP\INCLUDE\GODOT_CPP\VARIANT\BASIS.HPP
C:\USERS\ARIEL\DOCUMENTS\VISUAL STUDIO PROYECTOS\GDEXTENSIONVS\GODOT-CPP\INCLUDE\GODOT_CPP\VARIANT\TRANSFORM3D.HPP
C:\USERS\ARIEL\DOCUMENTS\VISUAL STUDIO PROYECTOS\GDEXTENSIONVS\GODOT-CPP\GEN\INCLUDE\GODOT_CPP\VARIANT\PACKED_VECTOR3_ARRAY.HPP
C:\USERS\ARIEL\DOCUMENTS\VISUAL STUDIO PROYECTOS\GDEXTENSIONVS\GODOT-CPP\INCLUDE\GODOT_CPP\VARIANT\PROJECTION.HPP
C:\USERS\ARIEL\DOCUMENTS\VISUAL STUDIO PROYECTOS\GDEXTENSIONVS\GODOT-CPP\INCLUDE\GODOT_CPP\VARIANT\COLOR.HPP
C:\USERS\ARIEL\DOCUMENTS\VISUAL STUDIO PROYECTOS\GDEXTENSIONVS\GODOT-CPP\GEN\INCLUDE\GODOT_CPP\VARIANT\STRING_NAME.HPP
C:\USERS\ARIEL\DOCUMENTS\VISUAL STUDIO PROYECTOS\GDEXTENSIONVS\GODOT-CPP\GEN\INCLUDE\GODOT_CPP\VARIANT\RID.HPP
C:\USERS\ARIEL\DOCUMENTS\VISUAL STUDIO PROYECTOS\GDEXTENSIONVS\GODOT-CPP\GEN\INCLUDE\GODOT_CPP\VARIANT\CALLABLE.HPP
C:\USERS\ARIEL\DOCUMENTS\VISUAL STUDIO PROYECTOS\GDEXTENSIONVS\GODOT-CPP\INCLUDE\GODOT_CPP\VARIANT\CALLABLE_CUSTOM.HPP
C:\USERS\ARIEL\DOCUMENTS\VISUAL STUDIO PROYECTOS\GDEXTENSIONVS\GODOT-CPP\GEN\INCLUDE\GODOT_CPP\VARIANT\SIGNAL.HPP
C:\USERS\ARIEL\DOCUMENTS\VISUAL STUDIO PROYECTOS\GDEXTENSIONVS\GODOT-CPP\GEN\INCLUDE\GODOT_CPP\VARIANT\DICTIONARY.HPP
C:\USERS\ARIEL\DOCUMENTS\VISUAL STUDIO PROYECTOS\GDEXTENSIONVS\GODOT-CPP\GEN\INCLUDE\GODOT_CPP\VARIANT\PACKED_BYTE_ARRAY.HPP
C:\USERS\ARIEL\DOCUMENTS\VISUAL STUDIO PROYECTOS\GDEXTENSIONVS\GODOT-CPP\GEN\INCLUDE\GODOT_CPP\VARIANT\PACKED_INT32_ARRAY.HPP
C:\USERS\ARIEL\DOCUMENTS\VISUAL STUDIO PROYECTOS\GDEXTENSIONVS\GODOT-CPP\GEN\INCLUDE\GODOT_CPP\VARIANT\PACKED_INT64_ARRAY.HPP
C:\USERS\ARIEL\DOCUMENTS\VISUAL STUDIO PROYECTOS\GDEXTENSIONVS\GODOT-CPP\GEN\INCLUDE\GODOT_CPP\VARIANT\PACKED_FLOAT32_ARRAY.HPP
C:\USERS\ARIEL\DOCUMENTS\VISUAL STUDIO PROYECTOS\GDEXTENSIONVS\GODOT-CPP\GEN\INCLUDE\GODOT_CPP\VARIANT\PACKED_FLOAT64_ARRAY.HPP
C:\USERS\ARIEL\DOCUMENTS\VISUAL STUDIO PROYECTOS\GDEXTENSIONVS\GODOT-CPP\GEN\INCLUDE\GODOT_CPP\VARIANT\PACKED_STRING_ARRAY.HPP
C:\USERS\ARIEL\DOCUMENTS\VISUAL STUDIO PROYECTOS\GDEXTENSIONVS\GODOT-CPP\GEN\INCLUDE\GODOT_CPP\VARIANT\PACKED_COLOR_ARRAY.HPP
C:\USERS\ARIEL\DOCUMENTS\VISUAL STUDIO PROYECTOS\GDEXTENSIONVS\GODOT-CPP\GEN\INCLUDE\GODOT_CPP\VARIANT\VARIANT_SIZE.HPP
C:\PROGRAM FILES\MICROSOFT VISUAL STUDIO\2022\COMMUNITY\VC\TOOLS\MSVC\14.38.33130\INCLUDE\ARRAY
C:\PROGRAM FILES\MICROSOFT VISUAL STUDIO\2022\COMMUNITY\VC\TOOLS\MSVC\14.38.33130\INCLUDE\XUTILITY
C:\PROGRAM FILES\MICROSOFT VISUAL STUDIO\2022\COMMUNITY\VC\TOOLS\MSVC\14.38.33130\INCLUDE\__MSVC_ITER_CORE.HPP
C:\PROGRAM FILES\MICROSOFT VISUAL STUDIO\2022\COMMUNITY\VC\TOOLS\MSVC\14.38.33130\INCLUDE\UTILITY
C:\PROGRAM FILES\MICROSOFT VISUAL STUDIO\2022\COMMUNITY\VC\TOOLS\MSVC\14.38.33130\INCLUDE\INITIALIZER_LIST
C:\USERS\ARIEL\DOCUMENTS\VISUAL STUDIO PROYECTOS\GDEXTENSIONVS\GODOT-CPP\GEN\INCLUDE\GODOT_CPP\VARIANT\BUILTIN_VARARG_METHODS.HPP
C:\USERS\ARIEL\DOCUMENTS\VISUAL STUDIO PROYECTOS\GDEXTENSIONVS\GODOT-CPP\GEN\INCLUDE\GODOT_CPP\CLASSES\OBJECT.HPP
C:\USERS\ARIEL\DOCUMENTS\VISUAL STUDIO PROYECTOS\GDEXTENSIONVS\GODOT-CPP\INCLUDE\GODOT_CPP\VARIANT\TYPED_ARRAY.HPP
C:\USERS\ARIEL\DOCUMENTS\VISUAL STUDIO PROYECTOS\GDEXTENSIONVS\GODOT-CPP\INCLUDE\GODOT_CPP\CLASSES\WRAPPED.HPP
C:\USERS\ARIEL\DOCUMENTS\VISUAL STUDIO PROYECTOS\GDEXTENSIONVS\GODOT-CPP\INCLUDE\GODOT_CPP\TEMPLATES\LIST.HPP
C:\USERS\ARIEL\DOCUMENTS\VISUAL STUDIO PROYECTOS\GDEXTENSIONVS\GODOT-CPP\INCLUDE\GODOT_CPP\TEMPLATES\SORT_ARRAY.HPP
C:\PROGRAM FILES\MICROSOFT VISUAL STUDIO\2022\COMMUNITY\VC\TOOLS\MSVC\14.38.33130\INCLUDE\VECTOR
C:\PROGRAM FILES\MICROSOFT VISUAL STUDIO\2022\COMMUNITY\VC\TOOLS\MSVC\14.38.33130\INCLUDE\__MSVC_BIT_UTILS.HPP
C:\PROGRAM FILES\MICROSOFT VISUAL STUDIO\2022\COMMUNITY\VC\TOOLS\MSVC\14.38.33130\INCLUDE\__MSVC_SANITIZER_ANNOTATE_CONTAINER.HPP
C:\PROGRAM FILES\MICROSOFT VISUAL STUDIO\2022\COMMUNITY\VC\TOOLS\MSVC\14.38.33130\INCLUDE\XMEMORY
C:\PROGRAM FILES\MICROSOFT VISUAL STUDIO\2022\COMMUNITY\VC\TOOLS\MSVC\14.38.33130\INCLUDE\LIMITS
C:\PROGRAM FILES\MICROSOFT VISUAL STUDIO\2022\COMMUNITY\VC\TOOLS\MSVC\14.38.33130\INCLUDE\CFLOAT
C:\PROGRAM FILES (X86)\WINDOWS KITS\10\INCLUDE\10.0.22621.0\UCRT\FLOAT.H
C:\PROGRAM FILES\MICROSOFT VISUAL STUDIO\2022\COMMUNITY\VC\TOOLS\MSVC\14.38.33130\INCLUDE\CWCHAR
C:\PROGRAM FILES\MICROSOFT VISUAL STUDIO\2022\COMMUNITY\VC\TOOLS\MSVC\14.38.33130\INCLUDE\CSTDIO
C:\PROGRAM FILES (X86)\WINDOWS KITS\10\INCLUDE\10.0.22621.0\UCRT\STDIO.H
C:\PROGRAM FILES (X86)\WINDOWS KITS\10\INCLUDE\10.0.22621.0\UCRT\CORECRT_WSTDIO.H
C:\PROGRAM FILES (X86)\WINDOWS KITS\10\INCLUDE\10.0.22621.0\UCRT\CORECRT_STDIO_CONFIG.H
C:\PROGRAM FILES (X86)\WINDOWS KITS\10\INCLUDE\10.0.22621.0\UCRT\WCHAR.H
C:\PROGRAM FILES (X86)\WINDOWS KITS\10\INCLUDE\10.0.22621.0\UCRT\CORECRT_WCONIO.H
C:\PROGRAM FILES (X86)\WINDOWS KITS\10\INCLUDE\10.0.22621.0\UCRT\CORECRT_WCTYPE.H
C:\PROGRAM FILES (X86)\WINDOWS KITS\10\INCLUDE\10.0.22621.0\UCRT\CORECRT_WDIRECT.H
C:\PROGRAM FILES (X86)\WINDOWS KITS\10\INCLUDE\10.0.22621.0\UCRT\CORECRT_WIO.H
C:\PROGRAM FILES (X86)\WINDOWS KITS\10\INCLUDE\10.0.22621.0\UCRT\CORECRT_SHARE.H
C:\PROGRAM FILES (X86)\WINDOWS KITS\10\INCLUDE\10.0.22621.0\UCRT\CORECRT_WPROCESS.H
C:\PROGRAM FILES (X86)\WINDOWS KITS\10\INCLUDE\10.0.22621.0\UCRT\SYS\STAT.H
C:\PROGRAM FILES (X86)\WINDOWS KITS\10\INCLUDE\10.0.22621.0\UCRT\SYS\TYPES.H
C:\PROGRAM FILES\MICROSOFT VISUAL STUDIO\2022\COMMUNITY\VC\TOOLS\MSVC\14.38.33130\INCLUDE\XPOLYMORPHIC_ALLOCATOR.H
C:\PROGRAM FILES\MICROSOFT VISUAL STUDIO\2022\COMMUNITY\VC\TOOLS\MSVC\14.38.33130\INCLUDE\TUPLE
C:\USERS\ARIEL\DOCUMENTS\VISUAL STUDIO PROYECTOS\GDEXTENSIONVS\GODOT-CPP\INCLUDE\GODOT_CPP\CLASSES\REF.HPP
C:\USERS\ARIEL\DOCUMENTS\VISUAL STUDIO PROYECTOS\GDEXTENSIONVS\GODOT-CPP\GEN\INCLUDE\GODOT_CPP\CLASSES\REF_COUNTED.HPP
C:\USERS\ARIEL\DOCUMENTS\VISUAL STUDIO PROYECTOS\GDEXTENSIONVS\GODOT-CPP\INCLUDE\GODOT_CPP\CORE\CLASS_DB.HPP
C:\USERS\ARIEL\DOCUMENTS\VISUAL STUDIO PROYECTOS\GDEXTENSIONVS\GODOT-CPP\INCLUDE\GODOT_CPP\CORE\METHOD_BIND.HPP
C:\USERS\ARIEL\DOCUMENTS\VISUAL STUDIO PROYECTOS\GDEXTENSIONVS\GODOT-CPP\INCLUDE\GODOT_CPP\CORE\BINDER_COMMON.HPP
C:\USERS\ARIEL\DOCUMENTS\VISUAL STUDIO PROYECTOS\GDEXTENSIONVS\GODOT-CPP\INCLUDE\GODOT_CPP\CORE\METHOD_PTRCALL.HPP
C:\USERS\ARIEL\DOCUMENTS\VISUAL STUDIO PROYECTOS\GDEXTENSIONVS\GODOT-CPP\INCLUDE\GODOT_CPP\CORE\TYPE_INFO.HPP
C:\USERS\ARIEL\DOCUMENTS\VISUAL STUDIO PROYECTOS\GDEXTENSIONVS\GODOT-CPP\GEN\INCLUDE\GODOT_CPP\CLASSES\GLOBAL_CONSTANTS_BINDS.HPP
C:\USERS\ARIEL\DOCUMENTS\VISUAL STUDIO PROYECTOS\GDEXTENSIONVS\GODOT-CPP\GEN\INCLUDE\GODOT_CPP\VARIANT\BUILTIN_BINDS.HPP
C:\PROGRAM FILES\MICROSOFT VISUAL STUDIO\2022\COMMUNITY\VC\TOOLS\MSVC\14.38.33130\INCLUDE\STRING
C:\PROGRAM FILES\MICROSOFT VISUAL STUDIO\2022\COMMUNITY\VC\TOOLS\MSVC\14.38.33130\INCLUDE\XSTRING
C:\PROGRAM FILES\MICROSOFT VISUAL STUDIO\2022\COMMUNITY\VC\TOOLS\MSVC\14.38.33130\INCLUDE\IOSFWD
C:\PROGRAM FILES\MICROSOFT VISUAL STUDIO\2022\COMMUNITY\VC\TOOLS\MSVC\14.38.33130\INCLUDE\CCTYPE
C:\PROGRAM FILES (X86)\WINDOWS KITS\10\INCLUDE\10.0.22621.0\UCRT\CTYPE.H
C:\PROGRAM FILES\MICROSOFT VISUAL STUDIO\2022\COMMUNITY\VC\TOOLS\MSVC\14.38.33130\INCLUDE\IOSTREAM
C:\PROGRAM FILES\MICROSOFT VISUAL STUDIO\2022\COMMUNITY\VC\TOOLS\MSVC\14.38.33130\INCLUDE\ISTREAM
C:\PROGRAM FILES\MICROSOFT VISUAL STUDIO\2022\COMMUNITY\VC\TOOLS\MSVC\14.38.33130\INCLUDE\OSTREAM
C:\PROGRAM FILES\MICROSOFT VISUAL STUDIO\2022\COMMUNITY\VC\TOOLS\MSVC\14.38.33130\INCLUDE\IOS
C:\PROGRAM FILES\MICROSOFT VISUAL STUDIO\2022\COMMUNITY\VC\TOOLS\MSVC\14.38.33130\INCLUDE\XLOCNUM
C:\PROGRAM FILES\MICROSOFT VISUAL STUDIO\2022\COMMUNITY\VC\TOOLS\MSVC\14.38.33130\INCLUDE\ITERATOR
C:\PROGRAM FILES\MICROSOFT VISUAL STUDIO\2022\COMMUNITY\VC\TOOLS\MSVC\14.38.33130\INCLUDE\STREAMBUF
C:\PROGRAM FILES\MICROSOFT VISUAL STUDIO\2022\COMMUNITY\VC\TOOLS\MSVC\14.38.33130\INCLUDE\XIOSBASE
C:\PROGRAM FILES (X86)\WINDOWS KITS\10\INCLUDE\10.0.22621.0\UCRT\SHARE.H
C:\PROGRAM FILES\MICROSOFT VISUAL STUDIO\2022\COMMUNITY\VC\TOOLS\MSVC\14.38.33130\INCLUDE\SYSTEM_ERROR
C:\PROGRAM FILES\MICROSOFT VISUAL STUDIO\2022\COMMUNITY\VC\TOOLS\MSVC\14.38.33130\INCLUDE\__MSVC_SYSTEM_ERROR_ABI.HPP
C:\PROGRAM FILES\MICROSOFT VISUAL STUDIO\2022\COMMUNITY\VC\TOOLS\MSVC\14.38.33130\INCLUDE\CERRNO
C:\PROGRAM FILES\MICROSOFT VISUAL STUDIO\2022\COMMUNITY\VC\TOOLS\MSVC\14.38.33130\INCLUDE\STDEXCEPT
C:\PROGRAM FILES\MICROSOFT VISUAL STUDIO\2022\COMMUNITY\VC\TOOLS\MSVC\14.38.33130\INCLUDE\XCALL_ONCE.H
C:\PROGRAM FILES\MICROSOFT VISUAL STUDIO\2022\COMMUNITY\VC\TOOLS\MSVC\14.38.33130\INCLUDE\XERRC.H
C:\PROGRAM FILES\MICROSOFT VISUAL STUDIO\2022\COMMUNITY\VC\TOOLS\MSVC\14.38.33130\INCLUDE\XLOCALE
C:\PROGRAM FILES\MICROSOFT VISUAL STUDIO\2022\COMMUNITY\VC\TOOLS\MSVC\14.38.33130\INCLUDE\MEMORY
C:\PROGRAM FILES\MICROSOFT VISUAL STUDIO\2022\COMMUNITY\VC\TOOLS\MSVC\14.38.33130\INCLUDE\TYPEINFO
C:\PROGRAM FILES\MICROSOFT VISUAL STUDIO\2022\COMMUNITY\VC\TOOLS\MSVC\14.38.33130\INCLUDE\VCRUNTIME_TYPEINFO.H
C:\PROGRAM FILES\MICROSOFT VISUAL STUDIO\2022\COMMUNITY\VC\TOOLS\MSVC\14.38.33130\INCLUDE\XFACET
C:\PROGRAM FILES\MICROSOFT VISUAL STUDIO\2022\COMMUNITY\VC\TOOLS\MSVC\14.38.33130\INCLUDE\XLOCINFO
C:\PROGRAM FILES\MICROSOFT VISUAL STUDIO\2022\COMMUNITY\VC\TOOLS\MSVC\14.38.33130\INCLUDE\__MSVC_XLOCINFO_TYPES.HPP
C:\PROGRAM FILES\MICROSOFT VISUAL STUDIO\2022\COMMUNITY\VC\TOOLS\MSVC\14.38.33130\INCLUDE\CLOCALE
C:\PROGRAM FILES (X86)\WINDOWS KITS\10\INCLUDE\10.0.22621.0\UCRT\LOCALE.H
C:\USERS\ARIEL\DOCUMENTS\VISUAL STUDIO PROYECTOS\GDEXTENSIONVS\GODOT-CPP\GEN\INCLUDE\GODOT_CPP\CLASSES\CLASS_DB_SINGLETON.HPP
C:\USERS\ARIEL\DOCUMENTS\VISUAL STUDIO PROYECTOS\GDEXTENSIONVS\GODOT-CPP\INCLUDE\GODOT_CPP\VARIANT\CALLABLE_METHOD_POINTER.HPP
C:\PROGRAM FILES\MICROSOFT VISUAL STUDIO\2022\COMMUNITY\VC\TOOLS\MSVC\14.38.33130\INCLUDE\LIST
C:\PROGRAM FILES\MICROSOFT VISUAL STUDIO\2022\COMMUNITY\VC\TOOLS\MSVC\14.38.33130\INCLUDE\SET
C:\PROGRAM FILES\MICROSOFT VISUAL STUDIO\2022\COMMUNITY\VC\TOOLS\MSVC\14.38.33130\INCLUDE\XTREE
C:\PROGRAM FILES\MICROSOFT VISUAL STUDIO\2022\COMMUNITY\VC\TOOLS\MSVC\14.38.33130\INCLUDE\XNODE_HANDLE.H
C:\PROGRAM FILES\MICROSOFT VISUAL STUDIO\2022\COMMUNITY\VC\TOOLS\MSVC\14.38.33130\INCLUDE\UNORDERED_MAP
C:\PROGRAM FILES\MICROSOFT VISUAL STUDIO\2022\COMMUNITY\VC\TOOLS\MSVC\14.38.33130\INCLUDE\XHASH
C:\PROGRAM FILES\MICROSOFT VISUAL STUDIO\2022\COMMUNITY\VC\TOOLS\MSVC\14.38.33130\INCLUDE\XBIT_OPS.H
